{
  "name": "Ignis.Unity.Building.Tests",
  "rootNamespace": "Ignis.Unity",
  "references": [
    "GUID:27619889b8ba8c24980f49ee34dbb44a",
    "GUID:0acc523941302664db1f4e527237feb3",
    "GUID:3bab21818e11eb94d961f91d3f57a264"
  ],
  "includePlatforms": [
    "Editor"
  ],
  "excludePlatforms": [],
  "allowUnsafeCode": false,
  "overrideReferences": true,
  "precompiledReferences": [
    "nunit.framework.dll"
  ],
  "autoReferenced": false,
  "defineConstraints": [
    "UNITY_INCLUDE_TESTS"
  ],
  "versionDefines": [],
  "noEngineReferences": false
}